{"properties": [
  {
    "name": "keycloak_client-secret",
    "type": "java.lang.String",
    "description": "A description for 'keycloak_client-secret'"
  },
  {
    "name": "keycloak_password",
    "type": "java.lang.String",
    "description": "A description for 'keycloak_password'"
  },
  {
    "name": "keycloak_user",
    "type": "java.lang.String",
    "description": "A description for 'keycloak_user'"
  },
  {
    "name": "keycloak_role",
    "type": "java.lang.String",
    "description": "A description for 'keycloak_role'"
  },
  {
    "name": "keycloak_client_secret",
    "type": "java.lang.String",
    "description": "A description for 'keycloak_client_secret'"
  },
  {
    "name": "keycloak_user_admin",
    "type": "java.lang.String",
    "description": "A description for 'keycloak_user_admin'"
  },
  {
    "name": "keycloak_user_password",
    "type": "java.lang.String",
    "description": "A description for 'keycloak_user_password'"
  },
  {
    "name": "mqtt.key_secret",
    "type": "java.lang.String",
    "description": "A description for 'mqtt.key_secret'"
  },
  {
    "name": "mqtt.username_superuser",
    "type": "java.lang.String",
    "description": "A description for 'mqtt.username_superuser'"
  },
  {
    "name": "mqtt.password_superuser",
    "type": "java.lang.String",
    "description": "A description for 'mqtt.password_superuser'"
  },
  {
    "name": "mqtt.server.url",
    "type": "java.lang.String",
    "description": "A description for 'mqtt.server.url'"
  }
]}